{
  "scan": {
    "analysis": {
      "0": {
        "algorithm": "OccPixelThresholdTune",
	"config": {
            "occLowCut": [0.45],
            "occHighCut": [0.55]
        }
      },
      "n_count": 1
    },
    "histogrammer": {
      "0": {
        "algorithm": "OccupancyMap",
        "config": {}
      },
      "n_count": 1
    },
    "loops": [
      { 
        "config": {
          "max": 31,
          "min": 0,
          "steps": [1,1,1,1,1,1,1,1,1,1,1,1,1,1,1],
	  "resetTdac": true

        },
        "loopAction": "StarChannelFeedback"
      },      
      {
        "config": {
          "trig_count": 5000,
          "trig_frequency": 1000,
          "trig_time": 0,
          "l0_latency": 30,
          "extTrigger": false,
          "noInject": true
        },
        "loopAction": "StarTriggerLoop"
      },
      {
        "loopAction": "StdDataLoop"
      }
    ],
    "name": "StdChannelThresholdTune",
    "prescan": {
       	"ABCs_PR_ENABLE":  1,
	"ABCs_LP_ENABLE":  1,
        "ABCs_BTRANGE":    6,
            "ABCs_B8BREF":    13,
            "ABCs_BVREF":     13,
            "ABCs_BIREF":     15,

	"ABCs_TM":    	   0,
        "ABCs_DETMODE":    0,
        "ABCs_MASKHPR":    1,
        "ABCs_STOPHPR":    1,
        "ABCs_BVT":       15,
            "ABCs_COMBIAS":   16,

        "HCC_MASKHPR":     1,
        "HCC_STOPHPR":     1
    }
  }
}
